test_run_dir/ProgramCounterTester_should_pass/ProgramCounter.vcd
$date
2025-10-22T14:55+0000
$end
$version
0.2
$end
$comment

$end
$timescale 1ns  $end
$scope module ProgramCounter $end
 $var wire 16 ! io_programCounterJump $end
 $var wire 16 " programCounterReg $end
 $var wire 1 # io_jump $end
 $var wire 16 $ io_programCounter $end
 $var wire 1 % io_run $end
 $var wire 1 & clock $end
 $var wire 1 ' io_stop $end
 $var wire 1 ( reset $end
$upscope $end
$enddefinitions $end
$dumpvars
b0000000000000000 !
0#
b0000000000000000 $
0%
0&
b0000000000000000 "
0'
0(
$end
#0
1(
#1
1&
#6
1%
0&
0(
#11
b0000000000000001 "
b0000000000000001 $
1&
#16
0&
#21
b0000000000000010 "
b0000000000000010 $
1&
#26
0&
#31
b0000000000000011 "
b0000000000000011 $
1&
#36
0&
#41
b0000000000000100 "
b0000000000000100 $
1&
#46
0&
#51
b0000000000000101 "
b0000000000000101 $
1&
#56
0&
1'
#61
1&
#66
0&
#71
1&
#76
0&
#81
1&
#86
0&
#91
1&
#96
0&
#101
1&
#106
0%
0&
0'
#111
1&
#116
0&
#121
1&
#126
0&
#131
1&
#136
0&
#141
1&
#146
0&
#151
1&
#156
b0000000000011110 !
1#
1%
0&
#161
b0000000000011110 "
b0000000000011110 $
1&
#166
b0000000000000000 !
0#
0&
#171
b0000000000011111 "
b0000000000011111 $
1&
#176
0&
#181
b0000000000100000 "
b0000000000100000 $
1&
#186
0&
#191
b0000000000100001 "
b0000000000100001 $
1&
#196
0&
#201
b0000000000100010 "
b0000000000100010 $
1&
#206
0&
#211
b0000000000100011 "
b0000000000100011 $
1&
#216
0%
0&
