test_run_dir/ALU_should_do_ADD_SUB_and_AND_correctly/ALU.vcd
$date
2025-11-09T16:15+0000
$end
$version
0.2
$end
$comment

$end
$timescale 1ns  $end
$scope module ALU $end
 $var wire 2 ! nzpReg_hi $end
 $var wire 1 " isZero $end
 $var wire 32 # ALUResult $end
 $var wire 32 $ io_result $end
 $var wire 1 % clock $end
 $var wire 3 & nzpReg $end
 $var wire 2 ' io_sel $end
 $var wire 32 ( io_operand1 $end
 $var wire 32 ) io_operand2 $end
 $var wire 1 * isPos $end
 $var wire 1 + reset $end
 $var wire 1 , isNeg $end
 $var wire 3 - io_nzp $end
$upscope $end
$enddefinitions $end
$dumpvars
b000 &
b00000000000000000000000000000000 )
b00000000000000000000000000000000 (
b00000000000000000000000000000000 #
b00000000000000000000000000000000 $
b000 -
0"
b00 '
0%
b00 !
0*
0+
0,
$end
#0
b01 !
1"
1+
#1
1%
#6
0%
0+
#11
1%
b010 &
b010 -
#16
b00 !
0"
b00000000000000000000000000000011 #
b00000000000000000000000000000011 $
0%
b00000000000000000000000000000001 (
b00000000000000000000000000000010 )
1*
#21
1%
b001 &
b001 -
#26
b00000000000000000000000000001111 #
b00000000000000000000000000001111 $
0%
b00000000000000000000000000001010 (
b00000000000000000000000000000101 )
#31
1%
#36
b01 !
1"
b00000000000000000000000000000000 #
b00000000000000000000000000000000 $
0%
b11111111111111111111111111111111 (
b00000000000000000000000000000001 )
0*
#41
1%
b010 &
b010 -
#46
b00 !
0"
b00000000000000000000000000000010 #
b00000000000000000000000000000010 $
0%
b01 '
b00000000000000000000000000000101 (
b00000000000000000000000000000011 )
1*
0,
#51
1%
b001 &
b001 -
#56
b01 !
1"
b00000000000000000000000000000000 #
b00000000000000000000000000000000 $
0%
b00000000000000000000000000001010 (
b00000000000000000000000000001010 )
0*
#61
1%
b010 &
b010 -
#66
b10 !
0"
b11111111111111111111111111111111 #
b11111111111111111111111111111111 $
0%
b00000000000000000000000000000000 (
b00000000000000000000000000000001 )
1,
#71
1%
b100 &
b100 -
#76
b00 !
0"
b00000000111100000000000011110000 #
b00000000111100000000000011110000 $
0%
b10 '
b11110000111100001111000011110000 (
b00001111111100000000111111110000 )
1*
0,
#81
1%
#86
b01 !
1"
b00000000000000000000000000000000 #
b00000000000000000000000000000000 $
0%
b11111111111111111111111111111111 (
b00000000000000000000000000000000 )
0*
#91
1%
#96
0%
b10101010101010101010101010101010 (
b01010101010101010101010101010101 )
#101
1%
#106
b10 !
0"
b10011001000001011111101010001111 #
b10011001000001011111101010001111 $
0%
b00 '
b01100000101101000010000010111011 (
b00111000010100011101100111010100 )
1,
#111
1%
#116
b00 !
b00101000011000100100011011100111 #
b00101000011000100100011011100111 $
0%
b01 '
1*
0,
#121
1%
b001 &
b001 -
#126
b00100000000100000000000010010000 #
b00100000000100000000000010010000 $
0%
b10 '
#131
1%
#136
b00 !
b00111001001110111100110011011000 #
b00111001001110111100110011011000 $
0%
b00 '
b01111010110010111001001100111101 (
b10111110011100000011100110011011 )
1*
0,
#141
1%
#146
b10 !
b10111100010110110101100110100010 #
b10111100010110110101100110100010 $
0%
b01 '
0*
1,
#151
1%
b100 &
b100 -
#156
b00 !
b00111010010000000001000100011001 #
b00111010010000000001000100011001 $
0%
b10 '
1*
0,
#161
1%
#166
b00 !
b00110001101110010100101011110010 #
b00110001101110010100101011110010 $
0%
b00 '
b11110110110010010010110110100011 (
b00111010111100000001110101001111 )
1*
0,
#171
1%
b001 &
b001 -
#176
b10 !
b10111011110110010001000001010100 #
b10111011110110010001000001010100 $
0%
b01 '
0*
1,
#181
1%
b100 &
b100 -
#186
b00 !
b00110010110000000000110100000011 #
b00110010110000000000110100000011 $
0%
b10 '
1*
0,
#191
1%
#196
b10 !
b10111010100101101101110110101001 #
b10111010100101101101110110101001 $
0%
b00 '
b10110111011100001110100110001100 (
b00000011001001011111010000011101 )
0*
1,
#201
1%
#206
b10110100010010101111010101101111 #
b10110100010010101111010101101111 $
0%
b01 '
#211
1%
#216
b00 !
b00000011001000001110000000001100 #
b00000011001000001110000000001100 $
0%
b10 '
1*
0,
#221
1%
#226
b10 !
b10101100011000100000101101100000 #
b10101100011000100000101101100000 $
0%
b00 '
b00111110101110101111100010011000 (
b01101101101001110001001011001000 )
0*
1,
#231
1%
#236
b11010001000100111110010111010000 #
b11010001000100111110010111010000 $
0%
b01 '
#241
1%
#246
b00 !
b00101100101000100001000010001000 #
b00101100101000100001000010001000 $
0%
b10 '
1*
0,
#251
1%
#256
b00 !
b01110111101111100000001010010101 #
b01110111101111100000001010010101 $
0%
b00 '
b00101011110011010100110101010101 (
b01001011111100001011010101000000 )
1*
0,
#261
1%
b001 &
b001 -
#266
b10 !
b11011111110111001001100000010101 #
b11011111110111001001100000010101 $
0%
b01 '
0*
1,
#271
1%
b100 &
b100 -
#276
b00 !
b00001011110000000000010101000000 #
b00001011110000000000010101000000 $
0%
b10 '
1*
0,
#281
1%
#286
b01110001101011001000101011111110 #
b01110001101011001000101011111110 $
0%
b00 '
b00100011110000101001101101100010 (
b01001101111010011110111110011100 )
#291
1%
b001 &
b001 -
#296
b10 !
b11010101110110001010101111000110 #
b11010101110110001010101111000110 $
0%
b01 '
0*
1,
#301
1%
b100 &
b100 -
#306
b00 !
b00000001110000001000101100000000 #
b00000001110000001000101100000000 $
0%
b10 '
1*
0,
#311
1%
#316
b10 !
b10000111101000101011100111110111 #
b10000111101000101011100111110111 $
0%
b00 '
b00101111100100110001111011111100 (
b01011000000011111001101011111011 )
0*
1,
#321
1%
#326
b11010111100000111000010000000001 #
b11010111100000111000010000000001 $
0%
b01 '
#331
1%
#336
b00 !
b00001000000000110001101011111000 #
b00001000000000110001101011111000 $
0%
b10 '
1*
0,
#341
1%
#346
b00 !
b00001111110011001111101011100110 #
b00001111110011001111101011100110 $
0%
b00 '
b00001000000110110001001011100001 (
b00000111101100011110100000000101 )
1*
0,
#351
1%
b001 &
b001 -
#356
b00000000011010010010101011011100 #
b00000000011010010010101011011100 $
0%
b01 '
#361
1%
#366
b00000000000100010000000000000001 #
b00000000000100010000000000000001 $
0%
b10 '
#371
1%
#376
b10 !
b11100100100001010000001000011101 #
b11100100100001010000001000011101 $
0%
b00 '
b11110010101101001111010111110000 (
b11110001110100000000110000101101 )
0*
1,
#381
1%
b100 &
b100 -
#386
b00 !
b00000000111001001110100111000011 #
b00000000111001001110100111000011 $
0%
b01 '
1*
0,
#391
1%
b001 &
b001 -
#396
b10 !
b11110000100100000000010000100000 #
b11110000100100000000010000100000 $
0%
b10 '
0*
1,
#401
1%
#406
b00 !
b01111111111101000111111110010110 #
b01111111111101000111111110010110 $
0%
b00 '
b00001111011000100110001101000110 (
b01110000100100100001110001010000 )
1*
0,
#411
1%
#416
b10 !
b10011110110100000100011011110110 #
b10011110110100000100011011110110 $
0%
b01 '
0*
1,
#421
1%
b100 &
b100 -
#426
b00 !
b00000000000000100000000001000000 #
b00000000000000100000000001000000 $
0%
b10 '
1*
0,
#431
1%
#436
b00 !
b01001111000100000011001001111110 #
b01001111000100000011001001111110 $
0%
b00 '
b01011000011001111111111100100000 (
b11110110101010000011001101011110 )
1*
0,
#441
1%
b001 &
b001 -
#446
b01100001101111111100101111000010 #
b01100001101111111100101111000010 $
0%
b01 '
#451
1%
#456
b01010000001000000011001100000000 #
b01010000001000000011001100000000 $
0%
b10 '
#461
1%
#466
b10 !
b11010001000001010000110111011001 #
b11010001000001010000110111011001 $
0%
b00 '
b10011000101011111000011100100101 (
b00111000010101011000011010110100 )
0*
1,
#471
1%
b100 &
b100 -
#476
b00 !
b01100000010110100000000001110001 #
b01100000010110100000000001110001 $
0%
b01 '
1*
0,
#481
1%
b001 &
b001 -
#486
b00011000000001011000011000100100 #
b00011000000001011000011000100100 $
0%
b10 '
#491
1%
#496
b10 !
b11010100110100000100110000000101 #
b11010100110100000100110000000101 $
0%
b00 '
b00011111111011111111001000000101 (
b10110100111000000101101000000000 )
0*
1,
#501
1%
b100 &
b100 -
#506
b00 !
b01101011000011111001100000000101 #
b01101011000011111001100000000101 $
0%
b01 '
1*
0,
#511
1%
b001 &
b001 -
#516
b00010100111000000101001000000000 #
b00010100111000000101001000000000 $
0%
b10 '
#521
1%
#526
b00 !
b01100111101100110101001110001101 #
b01100111101100110101001110001101 $
0%
b00 '
b00001000001000111111011110001011 (
b01011111100011110101110000000010 )
1*
0,
#531
1%
#536
b10 !
b10101000100101001001101110001001 #
b10101000100101001001101110001001 $
0%
b01 '
0*
1,
#541
1%
b100 &
b100 -
#546
b00 !
b00001000000000110101010000000010 #
b00001000000000110101010000000010 $
0%
b10 '
1*
0,
#551
1%
#556
b10 !
b10111110000101010000011010000110 #
b10111110000101010000011010000110 $
0%
b00 '
b01000011100111001110100011110110 (
b01111010011110000001110110010000 )
0*
1,
#561
1%
#566
b11001001001001001100101101100110 #
b11001001001001001100101101100110 $
0%
b01 '
#571
1%
#576
b00 !
b01000010000110000000100010010000 #
b01000010000110000000100010010000 $
0%
b10 '
1*
0,
#581
1%
#586
b10 !
b10110011110110010111101101011010 #
b10110011110110010111101101011010 $
0%
b00 '
b11001011111001101011111100011010 (
b11100111111100101011110001000000 )
0*
1,
#591
1%
#596
b11100011111101000000001011011010 #
b11100011111101000000001011011010 $
0%
b01 '
#601
1%
#606
b11000011111000101011110000000000 #
b11000011111000101011110000000000 $
0%
b10 '
#611
1%
#616
b00 !
b00010000101001010011101011101001 #
b00010000101001010011101011101001 $
0%
b00 '
b10100100100101110000100110100000 (
b01101100000011100011000101001001 )
1*
0,
#621
1%
b001 &
b001 -
#626
b00111000100010001101100001010111 #
b00111000100010001101100001010111 $
0%
b01 '
#631
1%
#636
b00100100000001100000000100000000 #
b00100100000001100000000100000000 $
0%
b10 '
#641
1%
#646
b01100110001100101111101101101100 #
b01100110001100101111101101101100 $
0%
b00 '
b10011011111100000010100101101001 (
b11001010010000101101001000000011 )
#651
1%
#656
b10 !
b11010001101011010101011101100110 #
b11010001101011010101011101100110 $
0%
b01 '
0*
1,
#661
1%
b100 &
b100 -
#666
b10001010010000000000000000000001 #
b10001010010000000000000000000001 $
0%
b10 '
#671
1%
#676
b00 !
b01111100010001001100010111000000 #
b01111100010001001100010111000000 $
0%
b00 '
b11100101011001101011110011000110 (
b10010110110111100000100011111010 )
1*
0,
#681
1%
b001 &
b001 -
#686
b01001110100010001011001111001100 #
b01001110100010001011001111001100 $
0%
b01 '
#691
1%
#696
b10 !
b10000100010001100000100011000010 #
b10000100010001100000100011000010 $
0%
b10 '
0*
1,
#701
1%
#706
0%
b00 '
b00000000000000000000000000000000 (
b00000000000000000000000000000000 )
